…
### Most popular aisles

-   How many aisles are there, and which aisles are the most items
    ordered from?

**There are 134 aisles in total, with most items ordered from the fresh
vegetables aisle followed closely by the fresh fruits aisle.**

``` r
instacart %>% 
  count(aisle) %>% 
  arrange(desc(n))
```

    ## # A tibble: 134 × 2
    ##    aisle                              n
    ##    <chr>                          <int>
    ##  1 fresh vegetables              150609
    ##  2 fresh fruits                  150473
    ##  3 packaged vegetables fruits     78493
    ##  4 yogurt                         55240
    ##  5 packaged cheese                41699
    ##  6 water seltzer sparkling water  36617
    ##  7 milk                           32644
    ##  8 chips pretzels                 31269
    ##  9 soy lactosefree                26240
    ## 10 bread                          23635
    ## # … with 124 more rows
…
    ## Rows: 35 Columns: 1443
    ## ── Column specification ────────────────────────────────────────────────────────
    ## Delimiter: ","
    ## chr    (1): day
    ## dbl (1442): week, day_id, activity.1, activity.2, activity.3, activity.4, ac...
    ## 
    ## ℹ Use `spec()` to retrieve the full column specification for this data.
    ## ℹ Specify the column types or set `show_col_types = FALSE` to quiet this message.

``` r
accel_data
```

    ## # A tibble: 50,400 × 6
    ##     week day_id day    type_of_day minutes_after_midnight activity
    ##    <dbl>  <dbl> <ord>  <chr>                        <dbl>    <dbl>
    ##  1     1      1 Friday Weekday                          1     88.4
    ##  2     1      1 Friday Weekday                          2     82.2
    ##  3     1      1 Friday Weekday                          3     64.4
    ##  4     1      1 Friday Weekday                          4     70.0
    ##  5     1      1 Friday Weekday                          5     75.0
    ##  6     1      1 Friday Weekday                          6     66.3
    ##  7     1      1 Friday Weekday                          7     53.8
    ##  8     1      1 Friday Weekday                          8     47.8
    ##  9     1      1 Friday Weekday                          9     55.5
    ## 10     1      1 Friday Weekday                         10     43.0
    ## # … with 50,390 more rows
…
noaa
```

    ## # A tibble: 2,595,176 × 9
    ##    id           year month      day  prcp  snow  snwd  tmax  tmin
    ##    <chr>       <dbl> <ord>    <int> <dbl> <dbl> <dbl> <dbl> <dbl>
    ##  1 US1NYAB0001  2007 November     1    NA    NA    NA    NA    NA
    ##  2 US1NYAB0001  2007 November     2    NA    NA    NA    NA    NA
    ##  3 US1NYAB0001  2007 November     3    NA    NA    NA    NA    NA
    ##  4 US1NYAB0001  2007 November     4    NA    NA    NA    NA    NA
    ##  5 US1NYAB0001  2007 November     5    NA    NA    NA    NA    NA
    ##  6 US1NYAB0001  2007 November     6    NA    NA    NA    NA    NA
    ##  7 US1NYAB0001  2007 November     7    NA    NA    NA    NA    NA
    ##  8 US1NYAB0001  2007 November     8    NA    NA    NA    NA    NA
    ##  9 US1NYAB0001  2007 November     9    NA    NA    NA    NA    NA
    ## 10 US1NYAB0001  2007 November    10    NA    NA    NA    NA    NA
    ## # … with 2,595,166 more rows
…
